{
    "path":"",
    "toggle":"1",
    "farmplots_path": "",
    "farmplot_load_option":"0",
    "farmplot_combined_schema":"combined_schema",
    "original_farmplots_table": "farmplots_original",
    "farmplots_table": "farmplots",
    "farmplots_temp_table": "farmplots_temp",
    "gcp_table":"gcp",
    "survey_map_table":"survey_original",
    "gat_map_table":"gat_original",
    "gat_area_table":"gat_area",
    "akarbandh_table":"akarbandh",
    "survey_map_akarbandh_col":"akarbandh_area",
    "cadastrals_table":"cadastrals",
    "survey_processed":"survey_original_processed",
    "survey_jitter_table":"survey_jitter",
    "survey_georeferenced_table":"survey_georeferenced",
    "shifted_faces_table":"shifted_faces",
    "jitter_spline_table":"jitter_spline_output_regularised_05",
    "possession_table":"possession_final"
}
