{
    "narrow_face_method":"jitter",
    "face_fit_method":"local",
    "input_table":"jitter_spline_output_regularised_05",
    "input_topo_suffix":"_jitter_spline_topo",
    "original_faces_table":"original_faces",
    "narrow_faces_table":"narrow_faces",
    "narrow_face_nodes":"narrow_face_nodes",
    "narrow_midlines_table":"narrow_midlines",
    "topo_tol":"0.2",
    "seg_tol":"1",
    "seg_length":"10000",
    "nar_face_shp_index_thresh":"55",
    "survey_no_assignment_intersection_thresh":"0.8",
    "cleaning_angle_thresh": "5",
    "corner_nodes":"corner_nodes",
    "corner_nodes_angle_thresh":"45",
    "corner_nodes_label_column":"label",
    "corner_nodes_label_buf_thresh":"0.1",
    "gcp_map_table":"gcp_mapping",
    "covered_nodes_table":"covered_nodes",
    "covered_edges_table":"covered_edges",
    "covered_faces_table":"covered_faces",
    "face_node_map_table":"face_node_map",
    "visited_faces_table":"visited_faces",
    "possible_node_snaps":"possible_node_snaps",
    "best_nodes_table":"best_nodes_table",
    "best_face_table":"best_face_table",
    "temp_nodes_table":"temp_nodes_table",
    "temp_face_table":"temp_face_table",
    "shifted_faces_table":"shifted_faces",
    "temp_nodes_geom_table":"temp_nodes_geom",
    "temp_translate_nodes":"temp_translate_nodes",
    "temp_possible_snaps":"temp_possible_snaps",
    "filtered_temp_possible_snaps":"filtered_temp_possible_snaps",
    "snap_buffer_thresh":"30",
    "snap_buffer_thresh_high":"35",
    "snap_buffer_thresh_low":"35",
    "point_in_void_distance_thresh":"7",
    "possible_snaps_thresh_1":"5",
    "possible_snaps_thresh_2":"2",
    "max_faces_per_face":"80",
    "nar_voids_table": "narrow_voids",
    "nar_jitter_buf_thresh": "50",
    "nar_jitter_cur_face" : "temp_nar_jitter_cur_face",
    "nar_jitter_cur_void" : "temp_nar_jitter_cur_void",
    "fixed_nar_faces_table" : "fixed_nar_faces_table",
    "temp_updated_nodes_table":"temp_updated_nodes_table",
    "rated_faces_table":"rated_faces",
    "considered_snaps_debug":"possible_snaps_debug",
    "two_degree_nodes_map":"two_degree_nodes_map",
    "actual_area_column": "actual_area",
    "eligible_area_table": "temp_eligible_area",
    "neighbour_faces_table": "temp_neighbour_faces",
    "current_poly": "temp_current_poly",
    "snappable_nodes_table": "snappable_nodes",
    "unsnap_nodes_table": "unsnap_nodes",
    "unsnap_nodes_fix_method": "parents"
}