{
    "gat_map_table":"gat_original",
    "gat_map_processed_table":"gat_original_processed",
    "gat_area_column_name":"area",
    "gat_area_table":"gat_area",
    "gat_jitter_table":"gat_jitter",
    "gat_shifted_table":"gat_shifted",
    "gat_scaled_rotated_table":"gat_scaled_rotated",
    "bnd1": "((-1, 1), (0.5, 10), (0.5, 10), (-80, 80), (-80, 80))",
    "bnd2": "((-0.1, 0.1), (0.9, 1.2), (0.9, 1.2), (-80, 80), (-80, 80))"
}